C:\Users\ClayC\IdeaProjects\PitoxienNET\BungeeSystem\src\main\java\de\claycode\bungeesystem\commands\TeamChatCommand.java
C:\Users\ClayC\IdeaProjects\PitoxienNET\BungeeSystem\src\main\java\de\claycode\bungeesystem\commands\TeamSpeakCommand.java
C:\Users\ClayC\IdeaProjects\PitoxienNET\BungeeSystem\src\main\java\de\claycode\bungeesystem\commands\BroadCastCommand.java
C:\Users\ClayC\IdeaProjects\PitoxienNET\BungeeSystem\src\main\java\de\claycode\bungeesystem\sql\NotifyStats.java
C:\Users\ClayC\IdeaProjects\PitoxienNET\BungeeSystem\src\main\java\de\claycode\bungeesystem\BungeeSystem.java
C:\Users\ClayC\IdeaProjects\PitoxienNET\BungeeSystem\src\main\java\de\claycode\bungeesystem\commands\NotifyCommand.java
C:\Users\ClayC\IdeaProjects\PitoxienNET\BungeeSystem\src\main\java\de\claycode\bungeesystem\commands\JumpToCommand.java
C:\Users\ClayC\IdeaProjects\PitoxienNET\BungeeSystem\src\main\java\de\claycode\bungeesystem\sql\SQL.java
C:\Users\ClayC\IdeaProjects\PitoxienNET\BungeeSystem\src\main\java\de\claycode\bungeesystem\commands\ReportCommand.java
C:\Users\ClayC\IdeaProjects\PitoxienNET\BungeeSystem\src\main\java\de\claycode\bungeesystem\storage\Data.java
C:\Users\ClayC\IdeaProjects\PitoxienNET\BungeeSystem\src\main\java\de\claycode\bungeesystem\listener\ConnectionListener.java
C:\Users\ClayC\IdeaProjects\PitoxienNET\BungeeSystem\src\main\java\de\claycode\bungeesystem\commands\InfoCommand.java
